C Tidyverse | Experimentology
…
because pipes pull out the first argument, the data frame just gets passed through successive operations

so you can read a pipe chain as “take this data frame and first do this, then do this, then do that.”

This piping thing is essentially the huge insight of the tidyverse: you can chain verbs into readable and efficient sequences of operations over dataframes, provided 1) the verbs all have the same syntax (which they do) and 2) the data all have the same structure (which they do if they are tidy).

So here’s our rewritten filter expression:

sgf |>
  filter(age >= 2, age < 3)

which yields this:

#> # A tibble: 192 × 5
#>    subid item   correct   age condition
#>    <chr> <chr>    <dbl> <dbl> <chr>    
#>  1 M22   faces        1  2    Label    
#>  2 M22   houses       1  2    Label    
#>  3 M22   pasta        0  2    Label    
#>  4 M22   beds         0  2    Label    
#>  5 T22   beds         0  2.13 Label    
#>  6 T22   faces        0  2.13 Label    
#>  7 T22   houses       1  2.13 Label    
#>  8 T22   pasta        1  2.13 Label    
#>  9 T17   pasta        0  2.32 Label    
#> 10 T17   faces        0  2.32 Label    
#> # … with 182 more rows
…
C.3 Getting your data tidy

We’ve now shown you some of the very nice things you can do once you have tidy data! But how do you get your data to be tidy?

Psychological data often comes in two flavors: long and wide data. Long form data is tidy, but that format is less common. It’s much more common to get wide data, in which every row is a case (e.g., a subject), and each column is a variable. In this format multiple trials (observations) are stored as columns. Wide data can be organized a bunch of ways, but the most common might be to have subjects as rows and trials as columns.

For example, let’s take a look at a wide version of the sgf dataset above.

sgf_wide <- read_csv("https://raw.githubusercontent.com/langcog/experimentology/main/data/tidyverse/sgf_wide.csv")

Here it is:

#> # A tibble: 150 × 8
#>    subid   age condition age_group  beds faces houses pasta
#>    <chr> <dbl> <chr>     <chr>     <dbl> <dbl>  <dbl> <dbl>
#>  1 C1     4.16 Label     (4,5]         1     1      1     1
#>  2 C10    3.46 Label     (3,4]         1     0      0     1
#>  3 C11    4.22 Label     (4,5]         1     1      0     1
#>  4 C12    3.56 Label     (3,4]         1     1      0     1
#>  5 C13    4.38 Label     (4,5]         1     0      1     0
#>  6 C14    4.57 Label     (4,5]         1     1      1     0
#>  7 C15    3.59 Label     (3,4]         1     1      1     1
#>  8 C16    3.22 Label     (3,4]         1     0      0     1
#>  9 C17    3.25 Label     (3,4]         0     1      0     1
#> 10 C18    4.95 Label     (4,5]         1     0      1     1
#> # … with 140 more rows
…
Specifically, pivot_longer takes three arguments:

A tidyselect way of getting columns – the columns you want to make longer. You can select them by name (e.g. beds, faces, houses, pasta), you can use numbers (e.g., 5:8), or you can use markers like starts_with(...).

A names_to argument. this argument is the name of the column names. In this case, the column names are items, so the “missing label” for them is item.

A values_to argument – the name of the thing in each column, in this case, the accuracy of the response (correct).

Let’s try it:

sgf_wide |> 
  pivot_longer(beds:pasta, 
               names_to = "item", 
               values_to = "correct")
#> # A tibble: 600 × 6
#>    subid   age condition age_group item   correct
#>    <chr> <dbl> <chr>     <chr>     <chr>    <dbl>
#>  1 C1     4.16 Label     (4,5]     beds         1
#>  2 C1     4.16 Label     (4,5]     faces        1
#>  3 C1     4.16 Label     (4,5]     houses       1
#>  4 C1     4.16 Label     (4,5]     pasta        1
#>  5 C10    3.46 Label     (3,4]     beds         1
#>  6 C10    3.46 Label     (3,4]     faces        0
#>  7 C10    3.46 Label     (3,4]     houses       0
#>  8 C10    3.46 Label     (3,4]     pasta        1
#>  9 C11    4.22 Label     (4,5]     beds         1
#> 10 C11    4.22 Label     (4,5]     faces        1
#> # … with 590 more rows
…
