Chapter 20 Tidyverse Tutorial | Experimentology
…
These data are tidy: each row describes a single trial, each column describes some aspect of tha trial, including their id (subid), age (age), condition (condition - “label” is the experimental condition, “No Label” is the control), item (item - which thing furble was trying to find).

We are going to manipulate these data using “verbs” from dplyr. I’ll only teach four verbs, the most common in my workflow (but there are many other useful ones):

filter - remove rows by some logical condition

mutate - create new columns

group_by - group the data into subsets by some column

summarize - apply some function over columns in each group

20.2.1 Exploring and characterizing the dataset

#> # A tibble: 588 × 5
#>    subid item   correct   age condition
#>    <chr> <chr>    <dbl> <dbl> <chr>    
#>  1 M22   faces        1  2    Label    
#>  2 M22   houses       1  2    Label    
#>  3 M22   pasta        0  2    Label    
#>  4 M22   beds         0  2    Label    
#>  5 T22   beds         0  2.13 Label    
#>  6 T22   faces        0  2.13 Label    
#>  7 T22   houses       1  2.13 Label    
#>  8 T22   pasta        1  2.13 Label    
#>  9 T17   pasta        0  2.32 Label    
#> 10 T17   faces        0  2.32 Label    
#> # … with 578 more rows
…
So if you wanted to look only at two year olds, you could do this. (Note you can give two conditions, could also do age > 2 & age < 3). (equivalent: filter(sgf, age > 2, age < 3))

Note that we’re going to be using pipes with functions over data frames here. The way this works is that:

dplyr verbs always take the data frame as their first argument, and

because pipes pull out the first argument, the data frame just gets passed through successive operations

so you can read a pipe chain as “take this data frame and first do this, then do this, then do that.”

This is essentially the huge insight of dplyr: you can chain verbs into readable and efficient sequences of operations over dataframes, provided 1) the verbs all have the same syntax (which they do) and 2) the data all have the same structure (which they do if they are tidy).

OK, so filtering:

#> # A tibble: 188 × 5
#>    subid item   correct   age condition
#>    <chr> <chr>    <dbl> <dbl> <chr>    
#>  1 T22   beds         0  2.13 Label    
#>  2 T22   faces        0  2.13 Label    
#>  3 T22   houses       1  2.13 Label    
#>  4 T22   pasta        1  2.13 Label    
#>  5 T17   pasta        0  2.32 Label    
#>  6 T17   faces        0  2.32 Label    
#>  7 T17   houses       0  2.32 Label    
#>  8 T17   beds         0  2.32 Label    
#>  9 M3    faces        0  2.38 Label    
#> 10 M3    houses       1  2.38 Label    
#> # … with 178 more rows

Exercise. Filter out only the “face” trial in the “Label” condition.

#> # A tibble: 75 × 5
#>    subid item  correct   age condition
#>    <chr> <chr>   <dbl> <dbl> <chr>    
#>  1 M22   faces       1  2    Label    
#>  2 T22   faces       0  2.13 Label    
#>  3 T17   faces       0  2.32 Label    
#>  4 M3    faces       0  2.38 Label    
#>  5 T19   faces       0  2.47 Label    
#>  6 T20   faces       1  2.5  Label    
#>  7 T21   faces       1  2.58 Label    
#>  8 M26   faces       1  2.59 Label    
#>  9 T18   faces       1  2.61 Label    
#> 10 T12   faces       0  2.72 Label    
#> # … with 65 more rows
#> # A tibble: 75 × 5
#>    subid item  correct   age condition
#>    <chr> <chr>   <dbl> <dbl> <chr>    
#>  1 M22   faces       1  2    Label    
#>  2 T22   faces       0  2.13 Label    
#>  3 T17   faces       0  2.32 Label    
#>  4 M3    faces       0  2.38 Label    
#>  5 T19   faces       0  2.47 Label    
#>  6 T20   faces       1  2.5  Label    
#>  7 T21   faces       1  2.58 Label    
#>  8 M26   faces       1  2.59 Label    
#>  9 T18   faces       1  2.61 Label    
#> 10 T12   faces       0  2.72 Label    
#> # … with 65 more rows

There are also times when you want to add or remove columns. You might want to remove columns to simplify the dataset. There’s not much to simplify here, but if you wanted to do that, the verb is select.

#> # A tibble: 588 × 3
#>    subid   age correct
#>    <chr> <dbl>   <dbl>
#>  1 M22    2          1
#>  2 M22    2          1
#>  3 M22    2          0
#>  4 M22    2          0
#>  5 T22    2.13       0
#>  6 T22    2.13       0
#>  7 T22    2.13       1
#>  8 T22    2.13       1
#>  9 T17    2.32       0
#> 10 T17    2.32       0
#> # … with 578 more rows
#> # A tibble: 588 × 4
#>    subid item   correct   age
#>    <chr> <chr>    <dbl> <dbl>
#>  1 M22   faces        1  2   
#>  2 M22   houses       1  2   
#>  3 M22   pasta        0  2   
#>  4 M22   beds         0  2   
#>  5 T22   beds         0  2.13
#>  6 T22   faces        0  2.13
#>  7 T22   houses       1  2.13
#>  8 T22   pasta        1  2.13
#>  9 T17   pasta        0  2.32
#> 10 T17   faces        0  2.32
#> # … with 578 more rows
#> # A tibble: 588 × 1
#>    subid
#>    <chr>
#>  1 M22  
#>  2 M22  
#>  3 M22  
#>  4 M22  
#>  5 T22  
#>  6 T22  
#>  7 T22  
#>  8 T22  
#>  9 T17  
#> 10 T17  
#> # … with 578 more rows
#> # A tibble: 588 × 1
#>    subid
#>    <chr>
#>  1 M22  
#>  2 M22  
#>  3 M22  
#>  4 M22  
#>  5 T22  
#>  6 T22  
#>  7 T22  
#>  8 T22  
#>  9 T17  
#> 10 T17  
#> # … with 578 more rows

Perhaps more useful is adding columns. You might do this perhaps to compute some kind of derived variable. mutate is the verb for these situations - it allows you to add a column. Let’s add a discrete age group factor to our dataset.

#> [1] [2,3] [2,3] [2,3] [2,3] [2,3] [2,3]
#> Levels: [2,3] (3,4] (4,5]

20.2.3 Standard psychological descriptives

We typically describe datasets at the level of subjects, not trials. We need two verbs to get a summary at the level of subjects: group_by and summarise (kiwi spelling). Grouping alone doesn’t do much.

#> # A tibble: 588 × 7
#> # Groups:   age_group [3]
#>    subid item   correct   age condition age_group age_group_halfyear
#>    <chr> <chr>    <dbl> <dbl> <chr>     <fct>     <fct>             
#>  1 M22   faces        1  2    Label     [2,3]     [2,2.5]           
#>  2 M22   houses       1  2    Label     [2,3]     [2,2.5]           
#>  3 M22   pasta        0  2    Label     [2,3]     [2,2.5]           
#>  4 M22   beds         0  2    Label     [2,3]     [2,2.5]           
#>  5 T22   beds         0  2.13 Label     [2,3]     [2,2.5]           
#>  6 T22   faces        0  2.13 Label     [2,3]     [2,2.5]           
#>  7 T22   houses       1  2.13 Label     [2,3]     [2,2.5]           
#>  8 T22   pasta        1  2.13 Label     [2,3]     [2,2.5]           
#>  9 T17   pasta        0  2.32 Label     [2,3]     [2,2.5]           
#> 10 T17   faces        0  2.32 Label     [2,3]     [2,2.5]           
#> # … with 578 more rows
…
There are lots of flexible ways to specify these columns - you can enumerate their names like I did.

Exercise. Take the Sklar data from above, where each column is a separate subject, and gather it so that it’s a tidy dataset. What challenges come up?

#> # A tibble: 154 × 28
#>    prime  prime.result target congruent operand distance counterbalance   `1`
#>    <chr>         <dbl>  <dbl> <chr>     <chr>      <dbl>          <dbl> <dbl>
#>  1 =1+2+5            8      9 no        A             -1              1   597
#>  2 =1+3+5            9     11 no        A             -2              1   699
#>  3 =1+4+3            8     12 no        A             -4              1   700
#>  4 =1+6+3           10     12 no        A             -2              1   628
#>  5 =1+9+2           12     11 no        A              1              1   768
#>  6 =1+9+3           13     12 no        A              1              1   595
#>  7 =2+1+9           12     11 no        A              1              1   664
#>  8 =2+3+6           11     10 no        A              1              1   803
#>  9 =2+3+7           12     11 no        A              1              1   767
#> 10 =2+5+6           13      9 no        A              4              1   700
#> # … with 144 more rows, and 20 more variables: 2 <dbl>, 3 <dbl>, 4 <dbl>,
#> #   5 <dbl>, 6 <dbl>, 7 <dbl>, 8 <dbl>, 9 <dbl>, 10 <dbl>, 11 <dbl>, 12 <dbl>,
#> #   13 <dbl>, 14 <dbl>, 15 <dbl>, 16 <dbl>, 17 <dbl>, 18 <dbl>, 19 <dbl>,
#> #   20 <dbl>, 21 <dbl>
…
This is a bit useless, because the variability is so high. So let’s summarise!

Exercise. Get means and SDs of productive vocabulary (production) by age and sex. Filter the kids with missing data for sex (coded by NA).

HINT: is.na(x) is useful for filtering.

#> # A tibble: 30 × 4
#> # Groups:   age [15]
#>      age sex    production production_sd
#>    <dbl> <chr>       <dbl>         <dbl>
#>  1    16 Female       66.9            NA
#>  2    16 Male         52.4            NA
#>  3    17 Female       85.7            NA
#>  4    17 Male         65.7            NA
#>  5    18 Female      137.             NA
#>  6    18 Male        105.             NA
#>  7    19 Female      172.             NA
#>  8    19 Male        137.             NA
#>  9    20 Female      198.             NA
#> 10    20 Male        164.             NA
#> # … with 20 more rows
…
#> [1] 3

Mean of participant means.

#> # A tibble: 3 × 3
#>   age_group mean_correct sd_correct
#>   <fct>            <dbl>      <dbl>
#> 1 [2,3]            0.408      0.269
#> 2 (3,4]            0.485      0.348
#> 3 (4,5]            0.448      0.375

Sklar tidying.

#> # A tibble: 3,234 × 9
#>    prime  prime.result target congruent operand distance counterbalance
#>    <chr>         <dbl>  <dbl> <chr>     <chr>      <dbl>          <dbl>
#>  1 =1+2+5            8      9 no        A             -1              1
#>  2 =1+3+5            9     11 no        A             -2              1
#>  3 =1+4+3            8     12 no        A             -4              1
#>  4 =1+6+3           10     12 no        A             -2              1
#>  5 =1+9+2           12     11 no        A              1              1
#>  6 =1+9+3           13     12 no        A              1              1
#>  7 =2+1+9           12     11 no        A              1              1
#>  8 =2+3+6           11     10 no        A              1              1
#>  9 =2+3+7           12     11 no        A              1              1
#> 10 =2+5+6           13      9 no        A              4              1
#> # … with 3,224 more rows, and 2 more variables: participant <chr>, RT <dbl>
…
