Chapter 22 ggplot Tutorial | Experimentology
…
22.7 Advanced plot exploration exercise

This is an exploration of Blake et al. (2015), Ontogeny of fairness in seven societies.

The general structue of this experiment is that we have pairs of participants assigned to the Disadvantageous and Advantageous conditions, and they do 16 trials for each pair in two blocks (varying value of the offer).

#> # A tibble: 13,856 × 12
#>    condition    country actor.id  actor.age.years actor.gender dist     eq.uneq
#>    <fct>        <chr>   <chr>               <dbl> <chr>        <chr>    <chr>  
#>  1 Advantageous Canada  canada.11               8 M            t1.dist  E      
#>  2 Advantageous Canada  canada.11               8 M            t2.dist  E      
#>  3 Advantageous Canada  canada.11               8 M            t3.dist  U      
#>  4 Advantageous Canada  canada.11               8 M            t4.dist  U      
#>  5 Advantageous Canada  canada.11               8 M            t5.dist  E      
#>  6 Advantageous Canada  canada.11               8 M            t6.dist  E      
#>  7 Advantageous Canada  canada.11               8 M            t7.dist  U      
#>  8 Advantageous Canada  canada.11               8 M            t8.dist  U      
#>  9 Advantageous Canada  canada.11               8 M            t9.dist  E      
#> 10 Advantageous Canada  canada.11               8 M            t10.dist U      
#> # … with 13,846 more rows, and 5 more variables: decision <chr>, value <chr>,
#> #   trial <chr>, trial_num <dbl>, trial_type <fct>
…
#> 5 Senegal   128
#> 6 Uganda    114
#> 7 US        207
#> # A tibble: 7 × 2
#>   country     n
#>   <chr>   <int>
#> 1 Canada     96
#> 2 India     104
#> 3 Mexico     68
#> 4 Peru      149
#> 5 Senegal   128
#> 6 Uganda    114
#> 7 US        207

#> # A tibble: 76 × 3
#> # Groups:   country [7]
#>    country actor.age.years     n
#>    <chr>             <dbl> <int>
#>  1 Canada              4      11
#>  2 Canada              4.5     1
#>  3 Canada              5      15
#>  4 Canada              6       4
#>  5 Canada              6.5     1
#>  6 Canada              7      14
#>  7 Canada              8       9
#>  8 Canada              9       9
#>  9 Canada             10       8
#> 10 Canada             11      18
#> # … with 66 more rows
…
